4 0.003 0.0321146 0.02 0.00316228
4 0.0035 0.0619271 0.063 0.00561249
4 0.004 0.0795208 0.108 0.00734847
4 0.004 0.09725 0.154 0.00877496
4 0.00438116 0.116489 0.219058 0.0109529
4 0.00436409 0.124013 0.249377 0.0124688
4 0.00436999 0.131282 0.291333 0.0145666
4 0.00474684 0.14018 0.316456 0.0158228
4 0.00501253 0.150724 0.334169 0.0167084
4 0.00478469 0.15951 0.382775 0.0191388
4 0.00511247 0.168051 0.408998 0.0204499
4 0.00486027 0.184791 0.486027 0.0243013
4 0.00510856 0.196733 0.510856 0.0255428
4 0.0058309 0.214681 0.58309 0.0291545
4 0.00458716 0.235729 0.611621 0.030581
4 0.00648298 0.253377 0.648298 0.0324149
8 0.004 0.029888 0.0005 0.0005
8 0.006 0.0608984 0.0205 0.00320156
8 0.0065 0.0791745 0.054 0.00519615
8 0.0075 0.097737 0.1225 0.00782624
8 0.00872242 0.116585 0.205233 0.0102617
8 0.0100334 0.125049 0.267559 0.0133779
8 0.0115652 0.133019 0.308404 0.0154202
8 0.0124666 0.143009 0.356189 0.0178094
8 0.0104068 0.148583 0.37843 0.0189215
8 0.0102389 0.159402 0.455063 0.0227531
8 0.0108827 0.165332 0.483676 0.0241838
8 0.0116618 0.183324 0.58309 0.0291545
8 0.0108359 0.199682 0.619195 0.0309598
8 0.0119048 0.213489 0.680272 0.0340136
8 0.0123239 0.234751 0.704225 0.0352113
8 0.0127505 0.255464 0.728597 0.0364299
16 0.01 0.0309967 0 0
16 0.0135 0.0606139 0.0015 0.000866025
16 0.017 0.0796224 0.011 0.00234521
16 0.0235 0.098377 0.0535 0.00517204
16 0.0275 0.115989 0.147 0.00857321
16 0.0293779 0.124624 0.230415 0.0115207
16 0.033195 0.134434 0.33195 0.0165975
16 0.0362173 0.141483 0.402414 0.0201207
16 0.0398458 0.150993 0.514139 0.0257069
16 0.0421196 0.160406 0.543478 0.0271739
16 0.044374 0.166644 0.633914 0.0316957
16 0.0519713 0.183274 0.716846 0.0358423
16 0.0571429 0.197748 0.761905 0.0380952
16 0.0636704 0.21171 0.749064 0.0374532
16 0.0759259 0.235241 0.740741 0.037037
16 0.0834879 0.255694 0.742115 0.0371058
