4 0.0015 0.0209375 0.0185 0.00304138
4 0.002 0.0421406 0.0545 0.00522015
4 0.0025 0.0635781 0.137 0.00827647
4 0.003 0.069625 0.1535 0.00876071
4 0.00350175 0.0817909 0.2001 0.010005
4 0.00348432 0.092516 0.232288 0.0116144
4 0.00334896 0.10139 0.267917 0.0133958
4 0.00408441 0.107131 0.272294 0.0136147
4 0.00377929 0.116969 0.302343 0.0151172
4 0.00362319 0.12701 0.362319 0.0181159
4 0.00393701 0.136657 0.393701 0.019685
4 0.00323974 0.145653 0.431965 0.0215983
4 0.00484848 0.171212 0.484848 0.0242424
4 0.00528402 0.185518 0.528402 0.0264201
8 0.004 0.0209219 0.006 0.00173205
8 0.004 0.0412969 0.0265 0.00364005
8 0.0045 0.0611836 0.103 0.00717635
8 0.005 0.0708047 0.1345 0.00820061
8 0.005 0.0814102 0.1755 0.0093675
8 0.00530973 0.0900949 0.235988 0.0117994
8 0.005743 0.0984667 0.28715 0.0143575
8 0.00600343 0.109375 0.343053 0.0171527
8 0.00595238 0.119017 0.396825 0.0198413
8 0.00688863 0.127126 0.459242 0.0229621
8 0.0059453 0.136946 0.475624 0.0237812
8 0.00641026 0.143219 0.512821 0.025641
8 0.00782473 0.170249 0.625978 0.0312989
8 0.00844595 0.188912 0.675676 0.0337838
16 0.006 0.0211777 0 0
16 0.008 0.0408506 0.0045 0.0015
16 0.0105 0.0609717 0.0315 0.00396863
16 0.011 0.0704736 0.0815 0.00638357
16 0.012 0.0798311 0.136 0.00824621
16 0.0122974 0.0903973 0.223589 0.0111794
16 0.0135908 0.0995549 0.286123 0.0143062
16 0.0141129 0.108804 0.403226 0.0201613
16 0.0150463 0.119102 0.462963 0.0231481
16 0.0174263 0.127521 0.536193 0.0268097
16 0.0163447 0.135622 0.594354 0.0297177
16 0.0193861 0.147481 0.646204 0.0323102
16 0.0222635 0.171335 0.742115 0.0371058
16 0.023766 0.187686 0.731261 0.0365631
