3 2000 0.001 0.02 0.0211111 0.01 0.00223607
3 2000 0.002 0.04 0.0396667 0.0405 0.0045
3 2000 0.0025 0.06 0.0578889 0.0785 0.00626498
3 2000 0.003 0.08 0.0805278 0.159 0.00891628
3 1683 0.00297089 0.1 0.101703 0.237671 0.0118835
3 1373 0.00582666 0.12 0.122077 0.291333 0.0145666
3 1090 0.00366972 0.14 0.13634 0.366972 0.0183486
3 1005 0.0039801 0.16 0.153344 0.39801 0.0199005
3 764 0.0039267 0.18 0.180992 0.52356 0.026178
3 679 0.00294551 0.2 0.199885 0.589102 0.0294551
5 2000 0.003 0.02 0.02096 0.0015 0.000866025
5 2000 0.0035 0.04 0.03959 0.017 0.00291548
5 2000 0.004 0.06 0.05925 0.055 0.00524404
5 2000 0.0045 0.08 0.07847 0.127 0.00796869
5 1699 0.00470865 0.1 0.100812 0.235433 0.0117716
5 1159 0.00517688 0.12 0.121277 0.345125 0.0172563
5 904 0.00995575 0.14 0.138982 0.442478 0.0221239
5 820 0.0109756 0.16 0.157805 0.487805 0.0243902
5 682 0.0102639 0.18 0.179589 0.58651 0.0293255
5 650 0.0107692 0.2 0.196277 0.615385 0.0307692
7 2000 0.0085 0.02 0.0204184 0.0005 0.0005
7 2000 0.0095 0.04 0.0400051 0.0055 0.00165831
7 2000 0.0105 0.06 0.0612551 0.037 0.00430116
7 2000 0.0125 0.08 0.0794082 0.0995 0.00705337
7 1767 0.0124505 0.1 0.0997771 0.226372 0.0113186
7 1163 0.0128977 0.12 0.118053 0.343938 0.0171969
7 819 0.013431 0.14 0.140203 0.4884 0.02442
7 686 0.0145773 0.16 0.156527 0.58309 0.0291545
7 621 0.0144928 0.18 0.177791 0.644122 0.0322061
7 571 0.0140105 0.2 0.200043 0.700525 0.0350263
