8 0.006 0.0205156 0.001 0.001
8 0.006 0.0400234 0.022 0.00469042
8 0.007 0.0582734 0.056 0.00748331
8 0.007 0.0669844 0.094 0.00969536
8 0.009 0.0760938 0.151 0.0122882
8 0.009 0.0850078 0.189 0.0137477
8 0.009 0.0950078 0.27 0.0164317
8 0.012 0.103992 0.316 0.0177764
8 0.01 0.113844 0.325 0.0180278
8 0.0104493 0.122902 0.417973 0.0208986
8 0.00906002 0.130521 0.453001 0.0226501
8 0.0115385 0.138682 0.512821 0.025641
8 0.0108192 0.167661 0.618238 0.0309119
8 0.0137457 0.182761 0.687285 0.0343643
