4 2000 0.001 0.01 0.0190781 0.0535 0.00517204
4 2000 0.0015 0.02 0.0417187 0.128 0.008
4 2000 0.0015 0.03 0.0602344 0.188 0.00969536
4 1427 0.00210231 0.04 0.0808952 0.280308 0.0140154
4 1133 0.00176523 0.05 0.0987974 0.353045 0.0176523
4 1025 0.00195122 0.06 0.11497 0.390244 0.0195122
4 904 0.00331858 0.07 0.130704 0.442478 0.0221239
4 830 0.00240964 0.08 0.150489 0.481928 0.0240964
4 729 0.00274348 0.09 0.166367 0.548697 0.0274348
4 645 0.00155039 0.1 0.189535 0.620155 0.0310078
4 678 0.00294985 0.11 0.194598 0.589971 0.0294985
4 628 0.00318471 0.12 0.208101 0.636943 0.0318471
4 621 0.00322061 0.13 0.228462 0.644122 0.0322061
4 573 0.0017452 0.14 0.244383 0.69808 0.034904
4 572 0.0034965 0.15 0.249126 0.699301 0.034965
8 2000 0.002 0.01 0.0208242 0.008 0.002
8 2000 0.0025 0.02 0.0406992 0.0445 0.00471699
8 2000 0.003 0.03 0.0598164 0.127 0.00796869
8 1707 0.00351494 0.04 0.0793195 0.234329 0.0117165
8 1141 0.00525855 0.05 0.098495 0.35057 0.0175285
8 945 0.00634921 0.06 0.114699 0.42328 0.021164
8 719 0.00556328 0.07 0.135257 0.556328 0.0278164
8 636 0.00471698 0.08 0.151324 0.628931 0.0314465
8 608 0.00493421 0.09 0.168534 0.657895 0.0328947
8 569 0.00527241 0.1 0.184424 0.702988 0.0351494
8 577 0.00519931 0.11 0.201527 0.693241 0.034662
8 550 0.00545455 0.12 0.211847 0.727273 0.0363636
8 547 0.00731261 0.13 0.228234 0.731261 0.0365631
8 558 0.00537634 0.14 0.24447 0.716846 0.0358423
8 519 0.00770713 0.15 0.256142 0.770713 0.0385356
16 2000 0.0035 0.01 0.0210664 0 0
16 2000 0.0055 0.02 0.0407285 0.0115 0.00239792
16 2000 0.007 0.03 0.060293 0.0695 0.00589491
16 1747 0.00801374 0.04 0.0799417 0.228964 0.0114482
16 1015 0.008867 0.05 0.0976428 0.394089 0.0197044
16 725 0.00965517 0.06 0.116754 0.551724 0.0275862
16 629 0.0143084 0.07 0.132977 0.63593 0.0317965
16 610 0.0147541 0.08 0.150199 0.655738 0.0327869
16 515 0.0174757 0.09 0.167798 0.776699 0.038835
16 529 0.0151229 0.1 0.183498 0.756144 0.0378072
16 548 0.0182482 0.11 0.195901 0.729927 0.0364964
16 530 0.0169811 0.12 0.212504 0.754717 0.0377358
16 538 0.0185874 0.13 0.228664 0.743494 0.0371747
16 515 0.0194175 0.14 0.242772 0.776699 0.038835
16 544 0.0220588 0.15 0.258513 0.735294 0.0367647
32 2000 0.009 0.01 0.0207021 0 0
32 2000 0.018 0.02 0.0408999 0.0005 0.0005
32 2000 0.032 0.03 0.0604285 0.022 0.00331662
32 1978 0.0460061 0.04 0.0795842 0.202224 0.0101112
32 874 0.0606407 0.05 0.0986479 0.457666 0.0228833
32 574 0.0958188 0.06 0.115809 0.696864 0.0348432
32 531 0.109228 0.07 0.133908 0.753296 0.0376648
32 530 0.139623 0.08 0.149778 0.754717 0.0377358
32 528 0.157197 0.09 0.166142 0.757576 0.0378788
32 521 0.184261 0.1 0.183447 0.767754 0.0383877
32 549 0.204007 0.11 0.198625 0.728597 0.0364299
32 555 0.190991 0.12 0.213243 0.720721 0.036036
32 513 0.218324 0.13 0.229473 0.779727 0.0389864
32 531 0.237288 0.14 0.242061 0.753296 0.0376648
32 529 0.266541 0.15 0.255666 0.756144 0.0378072
