4 0.002 0.0198333 0.0295 0.00384057
4 0.0025 0.0403333 0.1115 0.00746659
4 0.00294638 0.0596764 0.23571 0.0117855
4 0.0027933 0.0801715 0.372439 0.018622
4 0.00373599 0.100405 0.498132 0.0249066
4 0.00423131 0.11736 0.564175 0.0282087
4 0.00301659 0.137066 0.603318 0.0301659
4 0.00338983 0.158898 0.677966 0.0338983
4 0.0035461 0.182292 0.70922 0.035461
4 0.00371058 0.202342 0.742115 0.0371058
4 0.0037037 0.219599 0.740741 0.037037
4 0.0037037 0.238735 0.740741 0.037037
4 0.00182149 0.258386 0.728597 0.0364299
4 0.00361664 0.278594 0.723327 0.0361664
4 0.00376648 0.298493 0.753296 0.0376648
8 0.0035 0.0198698 0.0015 0.000866025
8 0.0045 0.0401849 0.0595 0.00545436
8 0.00519031 0.0593432 0.230681 0.011534
8 0.00706714 0.0806463 0.471143 0.0235571
8 0.00722543 0.100622 0.578035 0.0289017
8 0.00900901 0.120843 0.720721 0.036036
8 0.00878735 0.137806 0.702988 0.0351494
8 0.0075188 0.159383 0.75188 0.037594
8 0.00896057 0.179697 0.716846 0.0358423
8 0.00994036 0.199035 0.795229 0.0397614
8 0.00766284 0.21877 0.766284 0.0383142
8 0.00922509 0.2404 0.738007 0.0369004
8 0.00919118 0.260244 0.735294 0.0367647
8 0.00759013 0.279837 0.759013 0.0379507
8 0.00959693 0.301244 0.767754 0.0383877
16 0.0075 0.019946 0 0
16 0.0115 0.0402988 0.0155 0.00278388
16 0.015 0.05975 0.1985 0.00996243
16 0.0207469 0.0799007 0.55325 0.0276625
16 0.0257732 0.099889 0.687285 0.0343643
16 0.0274725 0.119711 0.732601 0.03663
16 0.0320755 0.14006 0.754717 0.0377358
16 0.0402194 0.159273 0.731261 0.0365631
16 0.0352505 0.17976 0.742115 0.0371058
16 0.03663 0.199359 0.732601 0.03663
16 0.0363985 0.220855 0.766284 0.0383142
16 0.0373665 0.241882 0.711744 0.0355872
16 0.0387454 0.259465 0.738007 0.0369004
16 0.0379507 0.279182 0.759013 0.0379507
16 0.0409357 0.299517 0.779727 0.0389864
