4 0.0015 0.01 0.0185625 0.0725 0.0060208
4 0.002 0.02 0.0377708 0.1575 0.00887412
4 0.00267917 0.03 0.0557602 0.267917 0.0133958
4 0.00265487 0.04 0.0761062 0.353982 0.0176991
4 0.00339367 0.05 0.089885 0.452489 0.0226244
4 0.00381194 0.06 0.10864 0.508259 0.025413
4 0.00268817 0.07 0.123096 0.537634 0.0268817
4 0.00327869 0.08 0.142145 0.655738 0.0327869
4 0.00483871 0.09 0.15457 0.645161 0.0322581
4 0.00335008 0.1 0.173157 0.670017 0.0335008
8 0.003 0.01 0.0193385 0.022 0.00331662
8 0.0035 0.02 0.0383802 0.1275 0.00798436
8 0.00443459 0.03 0.0573186 0.295639 0.014782
8 0.00557414 0.04 0.0753786 0.445931 0.0222965
8 0.00675676 0.05 0.0928773 0.540541 0.027027
8 0.00660066 0.06 0.111111 0.660066 0.0330033
8 0.00686106 0.07 0.128091 0.686106 0.0343053
8 0.0070922 0.08 0.141862 0.70922 0.035461
8 0.00929368 0.09 0.160781 0.743494 0.0371747
8 0.00888099 0.1 0.174049 0.71048 0.035524
16 0.006 0.01 0.0194557 0.0025 0.00111803
16 0.009 0.02 0.0388385 0.066 0.00574456
16 0.0120824 0.03 0.0578747 0.284293 0.0142146
16 0.01321 0.04 0.0755862 0.528402 0.0264201
16 0.0153846 0.05 0.093109 0.683761 0.034188
16 0.019678 0.06 0.109422 0.715564 0.0357782
16 0.021978 0.07 0.126493 0.732601 0.03663
16 0.0239411 0.08 0.142515 0.736648 0.0368324
16 0.0253165 0.09 0.157988 0.723327 0.0361664
16 0.0307102 0.1 0.174824 0.767754 0.0383877
