8 0.004 0.00971615 0 0
8 0.0065 0.0199063 0.0055 0.00165831
8 0.0075 0.0296823 0.016 0.00282843
8 0.007 0.0400182 0.0625 0.00559017
8 0.009 0.0500677 0.13 0.00806226
8 0.00940623 0.0602311 0.235156 0.0117578
8 0.0104923 0.0704659 0.322841 0.0161421
8 0.00907258 0.0794376 0.403226 0.0201613
8 0.00932091 0.090969 0.532623 0.0266312
8 0.00914634 0.0999508 0.609756 0.0304878
8 0.00980392 0.108822 0.653595 0.0326797
8 0.0107914 0.119098 0.719424 0.0359712
8 0.0122378 0.130099 0.699301 0.034965
8 0.0136519 0.140207 0.682594 0.0341297
8 0.0110294 0.148926 0.735294 0.0367647
8 0.0127737 0.158588 0.729927 0.0364964
8 0.0111732 0.168238 0.744879 0.0372439
8 0.012844 0.179989 0.733945 0.0366972
8 0.0115163 0.189519 0.767754 0.0383877
8 0.0111111 0.197145 0.740741 0.037037
8 0.0132827 0.211684 0.759013 0.0379507
8 0.013308 0.220691 0.760456 0.0380228
8 0.0136986 0.231215 0.782779 0.0391389
8 0.0147601 0.237315 0.738007 0.0369004
8 0.0133588 0.249851 0.763359 0.0381679
